{
  "profiles": {
    "twitch-random.ui": {
      "commandName": "Project",
      "launchBrowser": true,
      "environmentVariables": {
        "ASPNETCORE_ENVIRONMENT": "Development"
      },
      "applicationUrl": "https://localhost:57784;http://localhost:57788"
    }
  }
}